datos=ARG1;
salida=ARG2;
titulo=ARG3;

set cbrange [0:1600]
set title titulo
set view map
set xlabel "Alto (Tlado)"
set ylabel "Ancho (Tlado)"
set term png

#Guarda el gráfico en una imagen
set output salida.'.png'
splot datos matrix with image



